{
    "spec_dir": "UI_Testing/tests",
    "spec_files": [
        "**/*spec.js"
    ],
    "helpers": [
        "helpers/**/*.js"
    ],
    "stopSpecOnExpectationFailure": true,
    "random": false
    
}